[
    {
        "_id":{"$oid":"60b2033eaa5179f727e5afa7"},
        "username": "jovana",
        "name": "Jovana",
        "surname": "Nestorovic",
        "email": "jovNes@gmail.com",
        "password": "$2b$10$X9zwC18bOFIjGFb/ksqJN.F.lUg.CcxCnXWabomMIylu7/7tz1Hca",
        "gender": "female",
        "location": { 
		   "city": "Beograd",
		   "municipality": "Vracar"
	    },
        "dateOfBirth": "1983-08-11",
        "category": [
		"Chrono",
		"Vegeterian"],
	"imgUrl": "female_avatar.png",
        "approximatePrice": 37,
	"numberOfCustomer": 0,
   	"marks": 0
    
    },
    {
        "_id":{"$oid":"60b2033eaa5179f727e5afa4"},
        "username": "Luka",
        "name": "Luka",
        "surname": "Krstic",
        "email": "lk@gmail.com",
        "password": "$2b$10$X9zwC18bOFIjGFb/ksqJN.F.lUg.CcxCnXWabomMIylu7/7tz1Hca",
        "gender": "female",
        "location": { 
		   "city": "Vranje",
		   "municipality": "Vranje"
	},
        "dateOfBirth": "1979-08-10",
        "category": [
		"Chrono",
		"Vegan",
		"Vegeterian"],
	"imgUrl": "male_avatar.png",
        "approximatePrice": 43,
	"numberOfCustomer": 0,
   	"marks": 0
    
    },
    {
        "_id":{"$oid":"60b2033eaa5179f727e5afa5"},
        "username": "Tina",
        "name": "Kristina",
        "surname": "Jovic",
        "email": "tina@gmail.com",
        "password": "$2b$10$X9zwC18bOFIjGFb/ksqJN.F.lUg.CcxCnXWabomMIylu7/7tz1Hca",
        "gender": "female",
        "location": { 
		   "city": "Kragujevac",
		   "municipality": "Kragujevac"
	},
        "dateOfBirth": "1971-06-05",
        "category": [
		"Vegan"],
	"imgUrl": "female_avatar.png",
        "approximatePrice": 40,
	"numberOfCustomer": 0,
   	"marks": 0
    
    },
    {
        "_id":{"$oid":"60b2033eaa5179f727e5afa6"},
        "username": "Ilija",
        "name": "Ilija",
        "surname": "Pesic",
        "email": "pesici@gmail.com",
        "password": "$2b$10$X9zwC18bOFIjGFb/ksqJN.F.lUg.CcxCnXWabomMIylu7/7tz1Hca",
        "gender": "male",
        "location": { 
		"city": "Beograd",
		"municipality": "Vracar"
	},
        "dateOfBirth": "1975-08-07",
        "category": [
		"Vegan",
		"Vegeterian"],
	"imgUrl": "male_avatar.png",
        "approximatePrice": 35,
	"numberOfCustomer": 0,
   	"marks": 0
    
    }
]