[
    {
        "_id":{"$oid":"60b2033e1357b0803455d46d"},
        "username": "khalDrogo",
        "name": "Jason",
        "surname": "Momoa",
        "email": "khal@gmail.com",
        "password": "$2b$10$X9zwC18bOFIjGFb/ksqJN.F.lUg.CcxCnXWabomMIylu7/7tz1Hca",
        "gender": "male",
        "location": { 
		"city": "Los Angeles",
		"municipality": "Hollywood"
	},
        "dateOfBirth": "1983-08-11",
        "category": [
		"Body Building",
		"Yoga",
		"Group Training",
                "Personal Training"
		   ],
	"imgUrl": "male_avatar.png",
        "approximatePrice": 40,
	"numberOfCustomer": 0,
   	"marks": 0
    
    },
    {
        "_id": {"$oid":"60b2033e1357b0803455d46c"},
        "username": "thor",
        "name": "Chris",
        "surname": "Hemsworth",
        "email": "chris@gmail.com",
        "password": "$2b$10$X9zwC18bOFIjGFb/ksqJN.F.lUg.CcxCnXWabomMIylu7/7tz1Hca",
        "gender": "male",
        "location": { 
		"city": "Melbourne",
		"municipality": "Bulman"
	},
        "dateOfBirth": "1979-08-01",
        "category": [
		"Body Building",
		"Yoga",
		"Group Training",
                "Personal Training"
		   ],
	"imgUrl": "male_avatar.png",
        "approximatePrice": 35,
	"numberOfCustomer": 0,
   	"marks": 0
    },
    {
        "_id":{"$oid":"60b2033e1357b0803455d46e"},
        "username": "markyMark",
        "name": "Mark",
        "surname": "Wahlberg",
        "email": "marky@gmail.com",
        "password": "$2b$10$X9zwC18bOFIjGFb/ksqJN.F.lUg.CcxCnXWabomMIylu7/7tz1Hca",
        "gender": "male",
        "location": { 
		"city": "Boston",
		"municipality": "Dorchester"
	},
        "dateOfBirth": "1971-06-05",
        "category": [
		"Body Building",
		"Group Training",
                "Personal Training",
		"Box",
		"CrossFit"
		   ],
	"imgUrl": "male_avatar.png",
        "approximatePrice": 35,
	"numberOfCustomer": 0,
   	"marks": 0
    
    },
    {
        "_id":{"$oid":"60b2033e1357b0803455d46f"},
        "username": "charlize",
        "name": "Charlize",
        "surname": "Theron",
        "email": "charlize@gmail.com",
        "password": "$2b$10$X9zwC18bOFIjGFb/ksqJN.F.lUg.CcxCnXWabomMIylu7/7tz1Hca",
        "gender": "female",
        "location": { 
		"city": "Los Angeles",
		"municipality": "Hollywood"
	},
        "dateOfBirth": "1975-08-07",
        "category": [
		"Body Building",
		"Yoga",
		"Group Training",
                "Personal Training",
		"Cardio"
		   ],
	"imgUrl": "female_avatar.png",
        "approximatePrice": 35,
	"numberOfCustomer": 0,
   	"marks": 0
    
    }	

    
]
